#!/bin/bash -xv

########################################
# CONFIGURAÇÃO DAS VARIÁVEIS DO SCRIPT #
########################################

#Caminhos do GIT (sem a barra no final)
caminhogitfoxapp_scripts=/srv/git/foxapp_scripts
caminhogitfoxapp=/srv/git/foxapp 
gitoriginfoxapp=gitlab.com/foxmanager/foxmanager-versao-cliente.git #Git versão cliente

#Tomcat
#sed -i '/tomcatprincipal/d' $foxenv
#echo tomcatprincipal=7 >> $foxenv #Versão principal do Tomcat
tomcatprincipal=7 #Versão principal do Tomcat
tomcatrelease=7.0.93 #Versão de release do Tomcat

#FoxManager
caminhoonboot=$caminhogitfoxapp_scripts/onboot.sh


#FoxManager instalação
ubuntumin=1604 #Versão mínima requerida do Ubuntu (sem pontução "." Ex: 1604)
arqlog=/var/log/foxmanager-setup.log #Arquivo de log desse script


##############################
# FUNÇÕES COMUNS NOS SCRIPTS #
##############################


#Manter o shell BASH, independentemente da chamada do Shell (sh ou dash) 
if [ -z "$BASH_VERSION" ]
then
    exec bash "$0" "$@"
fi


#Verifica se o script está sendo rodado como root/sudo.
if [ "$(id -u)" -ne 0 ] ; then echo "Por favor, execute o script como super-usuário sudo/root." ; exit 1 ; 	fi 


#Registro geral de log no script
exec 3>&1 4>&2
trap 'exec 2>&4 1>&3' 0 1 2 3
exec 1>>$arqlog 2>&1

#Verifica se a versão do Ubuntu é compatível
ubuntuver=$( lsb_release -r | awk '{ print $2 }' | sed 's/[.]//' )

if [ $ubuntuver -lt $ubuntumin ]; then
        echo "A versão do seu Ubuntu ($ubuntuver) é inferior à versão recomendada ($ubuntumin)."
        exit 1
fi