#!/bin/bash -xv

#Carregar variaveis e funções básicas
. fox_environment.aux

##################################
# INSTALANDO O JAVA + TOMCAT
##################################

# Instalação do JAVA
printf "\nInstalando o Java... (Essa operação pode demorar alguns minutos)\n" >&3
printf "\nInstalando o Java... (Essa operação pode demorar alguns minutos)\n" 

#Java silent mode
echo debconf shared/accepted-oracle-license-v1-1 select true | \
debconf-set-selections
echo debconf shared/accepted-oracle-license-v1-1 seen true | \
debconf-set-selections

add-apt-repository -y ppa:webupd8team/java
apt-get -y update && apt-get -y upgrade && apt-get -y install oracle-java8-installer
echo 'export JAVA_HOME=/usr/lib/jvm/java-8-oracle' >> /etc/profile
echo 'export PATH=$JAVA_HOME/bin:$PATH' >> /etc/profile
. /etc/profile


# Instalação do Tomcat
printf "\nInstalando o Tomcat...\n" >&3 
printf "\nInstalando o Tomcat...\n" 

#Limpeza prévia
rm -rf /var/lib/apt/lists/lock
rm -rf /tmp/apache-tomcat-$tomcatrelease.zip*
rm -rf /tmp/tomcat$tomcatprincipal
rm -rf /usr/share/tomcat$tomcatprincipal

wget -P /tmp https://archive.apache.org/dist/tomcat/tomcat-$tomcatprincipal/v$tomcatrelease/bin/apache-tomcat-$tomcatrelease.zip
unzip /tmp/apache-tomcat-$tomcatrelease.zip -d /tmp
mv /tmp/apache-tomcat-$tomcatrelease /tmp/tomcat$tomcatprincipal 
mv /tmp/tomcat$tomcatprincipal /usr/share/ 

groupadd tomcat && useradd -M -s /bin/nologin -g tomcat -d /usr/share/tomcat$tomcatprincipal tomcat

chgrp -R tomcat /usr/share/tomcat$tomcatprincipal 
chown -R tomcat /usr/share/tomcat$tomcatprincipal
chmod -R 755 /usr/share/tomcat$tomcatprincipal
chmod -R 775 /usr/share/tomcat$tomcatprincipal/webapps
sudo usermod -a -G sudo tomcat
#chown -R tomcat:tomcat  $caminhogit


#Configurar o Tomcat
printf "\nConfigurando o Tomcat...\n" >&3 
printf "\nConfigurando o Tomcat...\n" 

#Da porta 8080 para porta 80
sed -i 's/8080/80/g' /usr/share/tomcat$tomcatprincipal/conf/server.xml

#Definição da senha para o usuário admin do Tomcat
echo # Senha Tomcat #
echo Digite uma senha ou uma senha aleatória será gerada para você.
read senhatomcat
if [ -z "$senhatomcat" ]; then
	senhatomcat=$(openssl rand -hex 8)
	echo a senha gerada para o tomcat é: $senhatomcat
	echo Guarde essa senha em um lugar seguro. Ela não será informada novamente.
fi
read -r -p "Pressione enter para continuar ..." key   


#Tomcat users default
mv /usr/share/tomcat$tomcatprincipal/conf/tomcat-users.xml /usr/share/tomcat$tomcatprincipal/conf/tomcat-users.xml.bkp
printf "<?xml version='1.0' encoding='utf-8'?> \n <tomcat-users> \n  <role rolename='manager-gui'/> \n  <role rolename='admin-gui'/> \n  <user username='admin' password='$senhatomcat' roles='manager-gui,admin-gui'/> \n </tomcat-users>" > /usr/share/tomcat$tomcatprincipal/conf/tomcat-users.xml
#Ajuste de bug do tomcat
sed -i 's+<Manager pathname= />+<Manager pathname="" />+g' /usr/share/tomcat7/conf/context.xml


#Logrotate do tomcat
printf "
/usr/share/tomcat7/logs/catalina.out {
copytruncate
daily
rotate 7
compress
missingok size 25M
}
" > /etc/logrotate.d/tomcat



#Permissões de execução e execução inicial e no boot para o onboot.sh
sudo usermod -a -G sudo ubuntu			 
cp $caminhoonboot /etc/init.d/onboot.sh
chmod +x /etc/init.d/onboot.sh
update-rc.d onboot.sh defaults
bash /etc/init.d/onboot.sh


#criar serviço do tomcat 
#Permitir print do #!bin/bash
histchars= 
printf "#!/bin/bash \n\n### BEGIN INIT INFO \n# Provides:        tomcat$tomcatprincipal \n# Required-Start:  \$network \n# Required-Stop:   \$network \n# Default-Start:   2 3 4 5 \n# Default-Stop:    0 1 6 \n
# Short-Description: Start/Stop Tomcat server \n### END INIT INFO \n\nPATH=/sbin:/bin:/usr/sbin:/usr/bin \n\nstart() { \n sh /usr/share/tomcat$tomcatprincipal/bin/startup.sh \n} \n\n
stop() { \n sh /usr/share/tomcat$tomcatprincipal/bin/shutdown.sh \n} \n\ncase \$1 in \n  start|stop) \$1;; \n  restart) stop; start;; \n  *) echo 'Run as \$0 <start|stop|restart>'; exit 1;; \nesac\n" > /etc/init.d/tomcat$tomcatrelease
unset histchars
chmod +x /etc/init.d/tomcat$tomcatrelease && update-rc.d tomcat defaults
systemctl daemon-reload	
service tomcat restart

#Ajuste no firewall
ufw allow 80/tcp #tomcat

#APR
#apt-get build-dep nginx



echo " " >&3
echo "TOMCAT STATUS" >&3
echo " " >&3
service tomcat status | grep Active >&3 






